"Adaptive immunity"," 0.660988","1.564e-04","0.025999"," 33"
"Angiogenesis"," 0.301373","9.163e-03","0.338511"," 79"
"Antiviral defense"," 0.094475","5.700e-01","1.000000"," 37"
"Apoptosis"," 0.195025","4.702e-04","0.052106","427"
"Autophagy"," 0.034620","8.748e-01","1.000000"," 21"
"Biological rhythms"," 0.208375","3.281e-02","0.991613","113"
"Blood coagulation","-0.248522","3.908e-01","1.000000"," 12"
"Calcium channel"," 0.150577","2.946e-01","1.000000"," 50"
"Calcium transport"," 0.201758","1.194e-01","1.000000"," 62"
"Carbohydrate metabolism","-0.277495","8.173e-02","1.000000"," 40"
"Cell adhesion"," 0.242021","8.887e-03","0.338511","127"
"Cell cycle"," 0.116864","8.757e-02","1.000000","248"
"Cell division","-0.006001","9.528e-01","1.000000","103"
"Cell shape","-0.077494","7.728e-01","1.000000"," 14"
"Chemotaxis"," 0.007616","9.602e-01","1.000000"," 44"
"Chloride channel","-0.309430","2.610e-01","1.000000"," 13"
"Cholesterol metabolism"," 0.110039","6.818e-01","1.000000"," 14"
"Chromosome partition","-0.475867","1.196e-01","1.000000"," 10"
"Complement pathway"," 0.432074","1.676e-01","1.000000"," 10"
"Differentiation"," 0.068629","4.340e-01","1.000000","141"
"DNA damage"," 0.187466","1.017e-01","1.000000"," 80"
"DNA repair"," 0.284917","1.493e-01","1.000000"," 26"
"Endocytosis"," 0.222979","2.061e-01","1.000000"," 33"
"Exocytosis"," 0.224349","4.030e-01","1.000000"," 14"
"Fatty acid biosynthesis"," 0.525123","5.234e-03","0.288418"," 28"
"Fatty acid metabolism","-0.045995","7.534e-01","1.000000"," 48"
"Gluconeogenesis","-0.736119","2.304e-03","0.191500"," 16"
"Glucose metabolism","-0.041944","8.451e-01","1.000000"," 22"
"Glycogen biosynthesis","-0.214172","3.542e-01","1.000000"," 19"
"Glycogen metabolism","-0.262496","1.680e-01","1.000000"," 28"
"Glycolysis","-0.037962","8.763e-01","1.000000"," 17"
"Growth regulation"," 0.029956","9.112e-01","1.000000"," 14"
"Hemostasis","-0.248522","3.908e-01","1.000000"," 12"
"Host-virus interaction"," 0.158859","1.892e-02","0.629060","256"
"Immunity"," 0.462612","1.362e-05","0.004527"," 94"
"Inflammatory response"," 0.060782","6.255e-01","1.000000"," 67"
"Initiation factor","-0.033185","9.088e-01","1.000000"," 12"
"Innate immunity"," 0.412266","3.135e-03","0.208442"," 52"
"Ion channel","-0.131508","1.538e-01","1.000000","127"
"Ion transport","-0.070430","4.018e-01","1.000000","155"
"Ligand-gated ion channel"," 0.068305","6.441e-01","1.000000"," 47"
"Lipid biosynthesis"," 0.215481","1.894e-01","1.000000"," 38"
"Lipid degradation"," 0.107376","5.476e-01","1.000000"," 32"
"Lipid metabolism"," 0.049020","6.403e-01","1.000000"," 96"
"Meiosis","-0.279615","3.522e-01","1.000000"," 11"
"Mitosis"," 0.011343","9.456e-01","1.000000"," 37"
"Necrosis"," 0.343645","1.329e-01","1.000000"," 19"
"Neurogenesis","-0.099974","4.190e-01","1.000000"," 68"
"Potassium channel"," 0.255225","3.987e-01","1.000000"," 11"
"Potassium transport","-0.290609","9.870e-02","1.000000"," 34"
"Protein biosynthesis","-0.142268","5.955e-01","1.000000"," 14"
"Protein transport"," 0.239912","3.094e-01","1.000000"," 18"
"Pyrogen"," 0.223754","4.759e-01","1.000000"," 10"
"Sensory transduction"," 0.111881","5.944e-01","1.000000"," 23"
"Sodium transport"," 0.270659","2.302e-01","1.000000"," 20"
"Spermatogenesis"," 0.259517","2.995e-01","1.000000"," 16"
"Steroid metabolism"," 0.035771","8.904e-01","1.000000"," 15"
"Sterol metabolism"," 0.110039","6.818e-01","1.000000"," 14"
"Stress response"," 0.466002","6.072e-03","0.288418"," 35"
"Sugar transport"," 0.225888","2.211e-01","1.000000"," 30"
"Transcription"," 0.065941","2.129e-01","1.000000","483"
"Transcription regulation"," 0.065991","2.128e-01","1.000000","482"
"Translation regulation"," 0.161106","2.396e-01","1.000000"," 55"
"Transport","-0.068990","3.150e-01","1.000000","245"
"Ubl conjugation pathway","-0.142467","3.904e-01","1.000000"," 37"
"Unfolded protein response"," 0.343596","1.419e-01","1.000000"," 19"
"Vision"," 0.321858","2.651e-01","1.000000"," 12"
"Voltage-gated channel","-0.266716","6.874e-02","1.000000"," 49"
"Wnt signaling pathway"," 0.057460","7.262e-01","1.000000"," 38"
