"00010","Glycolysis / Gluconeogenesis","-0.045818","7.123e-01","1.000e+00","65"
"00020","Citrate cycle (TCA cycle)","0.159774","3.811e-01","1.000e+00","30"
"00030","Pentose phosphate pathway","0.033665","8.638e-01","1.000e+00","26"
"00040","Pentose and glucuronate interconversions","-0.094105","6.002e-01","1.000e+00","31"
"00051","Fructose and mannose metabolism","0.043107","7.961e-01","1.000e+00","36"
"00052","Galactose metabolism","-0.008329","9.655e-01","1.000e+00","27"
"00053","Ascorbate and aldarate metabolism","0.068245","7.279e-01","1.000e+00","26"
"00061","Fatty acid biosynthesis","0.071552","8.608e-01","1.000e+00","6"
"00062","Fatty acid elongation","-0.067466","8.487e-01","1.000e+00","8"
"00071","Fatty acid degradation","-0.016515","9.139e-01","1.000e+00","43"
"00072","Synthesis and degradation of ketone bodies","-0.312549","3.409e-01","1.000e+00","9"
"00100","Steroid biosynthesis","-0.232344","3.200e-01","1.000e+00","18"
"00120","Primary bile acid biosynthesis","0.150671","5.453e-01","1.000e+00","16"
"00130","Ubiquinone and other terpenoid-quinone biosynthesis","-0.750584","3.699e-02","1.000e+00","7"
"00140","Steroid hormone biosynthesis","-0.231111","8.561e-02","1.000e+00","55"
"00190","Oxidative phosphorylation","-0.169520","6.574e-02","1.000e+00","118"
"00230","Purine metabolism","-0.245668","1.786e-03","2.732e-01","162"
"00232","Caffeine metabolism","0.200224","5.958e-01","1.000e+00","7"
"00240","Pyrimidine metabolism","-0.367426","2.581e-04","5.555e-02","98"
"00250","Alanine, aspartate and glutamate metabolism","-0.047621","7.878e-01","1.000e+00","32"
"00260","Glycine, serine and threonine metabolism","0.162869","3.562e-01","1.000e+00","32"
"00270","Cysteine and methionine metabolism","0.148494","3.733e-01","1.000e+00","36"
"00280","Valine, leucine and isoleucine degradation","0.023040","8.787e-01","1.000e+00","44"
"00290","Valine, leucine and isoleucine biosynthesis","0.071433","8.127e-01","1.000e+00","11"
"00300","Lysine biosynthesis","0.253880","6.581e-01","1.000e+00","3"
"00310","Lysine degradation","-0.002206","9.885e-01","1.000e+00","43"
"00330","Arginine and proline metabolism","-0.005661","9.669e-01","1.000e+00","54"
"00340","Histidine metabolism","-0.031120","8.670e-01","1.000e+00","29"
"00350","Tyrosine metabolism","0.229819","1.404e-01","1.000e+00","41"
"00360","Phenylalanine metabolism","0.173271","4.739e-01","1.000e+00","17"
"00380","Tryptophan metabolism","0.085511","5.795e-01","1.000e+00","42"
"00400","Phenylalanine, tyrosine and tryptophan biosynthesis","0.536912","2.130e-01","1.000e+00","5"
"00410","beta-Alanine metabolism","0.202330","3.409e-01","1.000e+00","22"
"00430","Taurine and hypotaurine metabolism","0.208681","5.083e-01","1.000e+00","10"
"00450","Selenocompound metabolism","-0.071283","7.755e-01","1.000e+00","16"
"00460","Cyanoamino acid metabolism","-0.082754","8.266e-01","1.000e+00","7"
"00471","D-Glutamine and D-glutamate metabolism","-0.270657","5.836e-01","1.000e+00","4"
"00472","D-Arginine and D-ornithine metabolism","-0.295235","7.629e-01","1.000e+00","1"
"00480","Glutathione metabolism","-0.010448","9.412e-01","1.000e+00","50"
"00500","Starch and sucrose metabolism","-0.111805","4.157e-01","1.000e+00","53"
"00510","N-Glycan biosynthesis","0.015888","9.116e-01","1.000e+00","49"
"00511","Other glycan degradation","-0.143862","5.520e-01","1.000e+00","17"
"00512","Mucin type O-Glycan biosynthesis","0.168742","3.564e-01","1.000e+00","30"
"00514","Other types of O-glycan biosynthesis","-0.003321","9.822e-01","1.000e+00","45"
"00520","Amino sugar and nucleotide sugar metabolism","-0.100036","4.888e-01","1.000e+00","48"
"00524","Butirosin and neomycin biosynthesis","-0.530687","2.291e-01","1.000e+00","5"
"00531","Glycosaminoglycan degradation","0.067285","7.753e-01","1.000e+00","18"
"00532","Glycosaminoglycan biosynthesis - chondroitin sulfate / dermatan sulfate","-0.292879","1.699e-01","1.000e+00","22"
"00533","Glycosaminoglycan biosynthesis - keratan sulfate","-0.047736","8.534e-01","1.000e+00","15"
"00534","Glycosaminoglycan biosynthesis - heparan sulfate / heparin","0.001267","9.948e-01","1.000e+00","26"
"00561","Glycerolipid metabolism","-0.014163","9.203e-01","1.000e+00","50"
"00562","Inositol phosphate metabolism","0.036114","7.854e-01","1.000e+00","57"
"00563","Glycosylphosphatidylinositol(GPI)-anchor biosynthesis","0.042794","8.307e-01","1.000e+00","25"
"00564","Glycerophospholipid metabolism","0.002233","9.842e-01","1.000e+00","79"
"00565","Ether lipid metabolism","0.136296","4.199e-01","1.000e+00","35"
"00590","Arachidonic acid metabolism","0.122639","3.504e-01","1.000e+00","58"
"00591","Linoleic acid metabolism","0.100632","5.878e-01","1.000e+00","29"
"00592","alpha-Linolenic acid metabolism","0.143469","5.310e-01","1.000e+00","19"
"00600","Sphingolipid metabolism","0.175835","2.658e-01","1.000e+00","40"
"00601","Glycosphingolipid biosynthesis - lacto and neolacto series","0.041162","8.339e-01","1.000e+00","26"
"00603","Glycosphingolipid biosynthesis - globo series","0.171608","5.212e-01","1.000e+00","14"
"00604","Glycosphingolipid biosynthesis - ganglio series","0.064130","8.039e-01","1.000e+00","15"
"00620","Pyruvate metabolism","-0.140976","3.723e-01","1.000e+00","40"
"00630","Glyoxylate and dicarboxylate metabolism","-0.118879","6.136e-01","1.000e+00","18"
"00640","Propanoate metabolism","-0.120318","4.957e-01","1.000e+00","32"
"00650","Butanoate metabolism","0.112706","5.437e-01","1.000e+00","29"
"00670","One carbon pool by folate","0.260327","2.653e-01","1.000e+00","18"
"00730","Thiamine metabolism","-0.250442","6.128e-01","1.000e+00","4"
"00740","Riboflavin metabolism","-0.168337","5.765e-01","1.000e+00","11"
"00750","Vitamin B6 metabolism","-0.229652","5.721e-01","1.000e+00","6"
"00760","Nicotinate and nicotinamide metabolism","-0.271536","1.814e-01","1.000e+00","24"
"00770","Pantothenate and CoA biosynthesis","-0.059561","8.118e-01","1.000e+00","16"
"00780","Biotin metabolism","-0.510597","4.420e-01","1.000e+00","2"
"00785","Lipoic acid metabolism","-1.518316","2.218e-04","5.555e-02","2"
"00790","Folate biosynthesis","-0.032838","9.133e-01","1.000e+00","11"
"00830","Retinol metabolism","0.048738","6.970e-01","1.000e+00","64"
"00860","Porphyrin and chlorophyll metabolism","-0.030784","8.402e-01","1.000e+00","43"
"00900","Terpenoid backbone biosynthesis","-0.334780","2.135e-01","1.000e+00","14"
"00910","Nitrogen metabolism","-0.059081","7.771e-01","1.000e+00","23"
"00920","Sulfur metabolism","-0.028581","9.179e-01","1.000e+00","13"
"00970","Aminoacyl-tRNA biosynthesis","0.122260","4.336e-01","1.000e+00","41"
"00980","Metabolism of xenobiotics by cytochrome P450","-0.130256","2.726e-01","1.000e+00","71"
"00982","Drug metabolism - cytochrome P450","-0.032976","7.785e-01","1.000e+00","73"
"00983","Drug metabolism - other enzymes","-0.106028","4.446e-01","1.000e+00","52"
"01040","Biosynthesis of unsaturated fatty acids","-0.301309","1.617e-01","1.000e+00","21"
"01100","Metabolic pathways","-0.069006","2.556e-02","1.000e+00","1108"
"02010","ABC transporters","-0.024818","8.694e-01","1.000e+00","44"
"03008","Ribosome biogenesis in eukaryotes","-0.123770","2.875e-01","1.000e+00","74"
"03010","Ribosome","-0.502396","1.218e-06","5.971e-04","86"
"03013","RNA transport","-0.086233","2.960e-01","1.000e+00","148"
"03015","mRNA surveillance pathway","-0.108762","3.259e-01","1.000e+00","82"
"03018","RNA degradation","-0.129367","2.796e-01","1.000e+00","70"
"03020","RNA polymerase","-0.529721","3.257e-03","4.077e-01","29"
"03022","Basal transcription factors","-0.052001","7.585e-01","1.000e+00","35"
"03030","DNA replication","-0.506947","2.086e-03","2.873e-01","36"
"03040","Spliceosome","-0.139744","1.201e-01","1.000e+00","124"
"03050","Proteasome","-0.252636","9.552e-02","1.000e+00","43"
"03060","Protein export","-0.248370","2.331e-01","1.000e+00","23"
"03320","PPAR signaling pathway","0.177893","1.370e-01","1.000e+00","70"
"03410","Base excision repair","-0.493258","5.016e-03","5.313e-01","32"
"03420","Nucleotide excision repair","-0.543740","2.824e-04","5.555e-02","44"
"03430","Mismatch repair","-0.486816","1.754e-02","1.000e+00","23"
"03440","Homologous recombination","-0.504824","6.050e-03","5.951e-01","28"
"03450","Non-homologous end-joining","-0.402020","1.465e-01","1.000e+00","13"
"04010","MAPK signaling pathway","0.108066","8.129e-02","1.000e+00","264"
"04012","ErbB signaling pathway","-0.019574","8.571e-01","1.000e+00","85"
"04020","Calcium signaling pathway","0.187802","1.296e-02","9.913e-01","177"
"04060","Cytokine-cytokine receptor interaction","0.124409","4.539e-02","1.000e+00","262"
"04062","Chemokine signaling pathway","-0.020317","7.833e-01","1.000e+00","185"
"04070","Phosphatidylinositol signaling system","0.037687","7.397e-01","1.000e+00","78"
"04080","Neuroactive ligand-receptor interaction","0.297653","1.301e-06","5.971e-04","272"
"04110","Cell cycle","-0.032061","7.219e-01","1.000e+00","124"
"04114","Oocyte meiosis","-0.080345","3.964e-01","1.000e+00","112"
"04115","p53 signaling pathway","-0.025028","8.368e-01","1.000e+00","68"
"04120","Ubiquitin mediated proteolysis","-0.247265","4.347e-03","4.989e-01","133"
"04122","Sulfur relay system","-0.976560","4.211e-02","1.000e+00","10"
"04130","SNARE interactions in vesicular transport","-0.232905","1.663e-01","1.000e+00","35"
"04140","Regulation of autophagy","-0.054409","7.513e-01","1.000e+00","34"
"04141","Protein processing in endoplasmic reticulum","0.018960","8.101e-01","1.000e+00","162"
"04142","Lysosome","-0.084057","3.586e-01","1.000e+00","120"
"04144","Endocytosis","-0.142499","4.494e-02","1.000e+00","200"
"04145","Phagosome","0.103909","2.017e-01","1.000e+00","152"
"04146","Peroxisome","-0.204071","7.092e-02","1.000e+00","78"
"04150","mTOR signaling pathway","-0.083614","5.511e-01","1.000e+00","51"
"04210","Apoptosis","-0.130703","2.261e-01","1.000e+00","86"
"04260","Cardiac muscle contraction","0.174709","1.388e-01","1.000e+00","72"
"04270","Vascular smooth muscle contraction","-0.057763","5.385e-01","1.000e+00","114"
"04310","Wnt signaling pathway","0.002923","9.715e-01","1.000e+00","150"
"04320","Dorso-ventral axis formation","-0.077897","7.029e-01","1.000e+00","24"
"04330","Notch signaling pathway","0.025795","8.613e-01","1.000e+00","46"
"04340","Hedgehog signaling pathway","0.003522","9.790e-01","1.000e+00","56"
"04350","TGF-beta signaling pathway","-0.141309","1.958e-01","1.000e+00","84"
"04360","Axon guidance","0.023796","7.884e-01","1.000e+00","128"
"04370","VEGF signaling pathway","0.102678","3.811e-01","1.000e+00","73"
"04380","Osteoclast differentiation","0.064378","4.679e-01","1.000e+00","128"
"04510","Focal adhesion","0.144142","4.313e-02","1.000e+00","199"
"04512","ECM-receptor interaction","0.167045","1.288e-01","1.000e+00","83"
"04514","Cell adhesion molecules (CAMs)","0.050924","5.613e-01","1.000e+00","131"
"04520","Adherens junction","0.107194","3.605e-01","1.000e+00","73"
"04530","Tight junction","0.180404","4.155e-02","1.000e+00","128"
"04540","Gap junction","0.017043","8.726e-01","1.000e+00","89"
"04610","Complement and coagulation cascades","0.235976","5.053e-02","1.000e+00","68"
"04612","Antigen processing and presentation","0.064097","5.797e-01","1.000e+00","75"
"04614","Renin-angiotensin system","0.294259","2.270e-01","1.000e+00","17"
"04620","Toll-like receptor signaling pathway","0.064298","5.213e-01","1.000e+00","100"
"04621","NOD-like receptor signaling pathway","-0.197987","1.311e-01","1.000e+00","58"
"04622","RIG-I-like receptor signaling pathway","0.145839","2.233e-01","1.000e+00","70"
"04623","Cytosolic DNA-sensing pathway","-0.066243","6.270e-01","1.000e+00","54"
"04630","Jak-STAT signaling pathway","0.279099","5.402e-04","9.298e-02","155"
"04640","Hematopoietic cell lineage","0.011634","9.143e-01","1.000e+00","86"
"04650","Natural killer cell mediated cytotoxicity","0.020093","8.167e-01","1.000e+00","134"
"04660","T cell receptor signaling pathway","-0.223674","2.128e-02","1.000e+00","107"
"04662","B cell receptor signaling pathway","0.026025","8.232e-01","1.000e+00","74"
"04664","Fc epsilon RI signaling pathway","-0.120051","2.927e-01","1.000e+00","77"
"04666","Fc gamma R-mediated phagocytosis","-0.105094","3.118e-01","1.000e+00","93"
"04670","Leukocyte transendothelial migration","0.034019","7.172e-01","1.000e+00","114"
"04672","Intestinal immune network for IgA production","-0.109694","4.476e-01","1.000e+00","48"
"04710","Circadian rhythm","-0.248975","2.439e-01","1.000e+00","22"
"04720","Long-term potentiation","-0.084171","4.852e-01","1.000e+00","69"
"04722","Neurotrophin signaling pathway","0.059889","5.061e-01","1.000e+00","124"
"04730","Long-term depression","0.197312","1.045e-01","1.000e+00","68"
"04740","Olfactory transduction","0.929471","2.762e-72","3.804e-69","383"
"04742","Taste transduction","0.356647","1.045e-02","8.990e-01","51"
"04744","Phototransduction","0.222692","2.391e-01","1.000e+00","28"
"04810","Regulation of actin cytoskeleton","0.094974","1.692e-01","1.000e+00","212"
"04910","Insulin signaling pathway","-0.001659","9.847e-01","1.000e+00","135"
"04912","GnRH signaling pathway","0.070005","4.893e-01","1.000e+00","98"
"04914","Progesterone-mediated oocyte maturation","-0.077522","4.732e-01","1.000e+00","86"
"04916","Melanogenesis","0.027681","7.825e-01","1.000e+00","100"
"04920","Adipocytokine signaling pathway","0.084791","4.852e-01","1.000e+00","68"
"04930","Type II diabetes mellitus","-0.080184","5.790e-01","1.000e+00","48"
"04940","Type I diabetes mellitus","0.077751","6.106e-01","1.000e+00","43"
"04950","Maturity onset diabetes of the young","0.534798","6.701e-03","6.151e-01","25"
"04960","Aldosterone-regulated sodium reabsorption","0.127829","4.084e-01","1.000e+00","42"
"04962","Vasopressin-regulated water reabsorption","-0.078434","6.033e-01","1.000e+00","44"
"04964","Proximal tubule bicarbonate reclamation","-0.016695","9.362e-01","1.000e+00","23"
"04966","Collecting duct acid secretion","0.331334","8.315e-02","1.000e+00","27"
"04970","Salivary secretion","0.129716","2.273e-01","1.000e+00","87"
"04971","Gastric acid secretion","0.186938","1.089e-01","1.000e+00","74"
"04972","Pancreatic secretion","0.112067","2.634e-01","1.000e+00","100"
"04973","Carbohydrate digestion and absorption","0.112990","4.644e-01","1.000e+00","42"
"04974","Protein digestion and absorption","0.151111","1.748e-01","1.000e+00","81"
"04975","Fat digestion and absorption","-0.063191","6.720e-01","1.000e+00","45"
"04976","Bile secretion","-0.019132","8.722e-01","1.000e+00","71"
"04977","Vitamin digestion and absorption","0.246745","2.259e-01","1.000e+00","24"
"05010","Alzheimer's disease","-0.159204","4.463e-02","1.000e+00","160"
"05012","Parkinson's disease","-0.199311","3.167e-02","1.000e+00","116"
"05014","Amyotrophic lateral sclerosis (ALS)","0.010323","9.402e-01","1.000e+00","53"
"05016","Huntington's disease","-0.176482","1.997e-02","1.000e+00","175"
"05020","Prion diseases","-0.155508","3.638e-01","1.000e+00","34"
"05100","Bacterial invasion of epithelial cells","0.099824","4.076e-01","1.000e+00","69"
"05110","Vibrio cholerae infection","-0.065036","6.331e-01","1.000e+00","54"
"05120","Epithelial cell signaling in Helicobacter pylori infection","0.039638","7.442e-01","1.000e+00","68"
"05130","Pathogenic Escherichia coli infection","-0.040379","7.649e-01","1.000e+00","55"
"05131","Shigellosis","0.055365","6.660e-01","1.000e+00","61"
"05140","Leishmaniasis","-0.021637","8.546e-01","1.000e+00","72"
"05142","Chagas disease (American trypanosomiasis)","0.041951","6.696e-01","1.000e+00","104"
"05143","African trypanosomiasis","-0.291465","8.386e-02","1.000e+00","35"
"05144","Malaria","-0.025142","8.577e-01","1.000e+00","51"
"05145","Toxoplasmosis","-0.040723","6.447e-01","1.000e+00","129"
"05146","Amoebiasis","0.183252","5.953e-02","1.000e+00","106"
"05150","Staphylococcus aureus infection","0.045847","7.365e-01","1.000e+00","54"
"05160","Hepatitis C","0.219416","1.197e-02","9.695e-01","132"
"05200","Pathways in cancer","0.081269","1.462e-01","1.000e+00","325"
"05210","Colorectal cancer","-0.082896","5.146e-01","1.000e+00","62"
"05211","Renal cell carcinoma","0.151196","2.100e-01","1.000e+00","69"
"05212","Pancreatic cancer","0.008694","9.421e-01","1.000e+00","70"
"05213","Endometrial cancer","0.098305","4.831e-01","1.000e+00","51"
"05214","Glioma","0.087958","4.857e-01","1.000e+00","63"
"05215","Prostate cancer","0.132074","2.163e-01","1.000e+00","88"
"05216","Thyroid cancer","0.147407","4.358e-01","1.000e+00","28"
"05217","Basal cell carcinoma","0.022124","8.699e-01","1.000e+00","55"
"05218","Melanoma","0.231951","5.300e-02","1.000e+00","70"
"05219","Bladder cancer","0.004715","9.759e-01","1.000e+00","41"
"05220","Chronic myeloid leukemia","0.037484","7.526e-01","1.000e+00","71"
"05221","Acute myeloid leukemia","0.015294","9.090e-01","1.000e+00","56"
"05222","Small cell lung cancer","0.125042","2.497e-01","1.000e+00","85"
"05223","Non-small cell lung cancer","0.045365","7.416e-01","1.000e+00","53"
"05310","Asthma","-0.016840","9.266e-01","1.000e+00","30"
"05320","Autoimmune thyroid disease","0.243643","7.814e-02","1.000e+00","52"
"05322","Systemic lupus erythematosus","-0.317162","2.648e-04","5.555e-02","133"
"05323","Rheumatoid arthritis","0.032239","7.590e-01","1.000e+00","91"
"05330","Allograft rejection","-0.037027","8.220e-01","1.000e+00","37"
"05332","Graft-versus-host disease","-0.020872","8.938e-01","1.000e+00","41"
"05340","Primary immunodeficiency","-0.315857","6.207e-02","1.000e+00","35"
"05410","Hypertrophic cardiomyopathy (HCM)","0.253750","2.093e-02","1.000e+00","83"
"05412","Arrhythmogenic right ventricular cardiomyopathy (ARVC)","0.215120","6.437e-02","1.000e+00","74"
"05414","Dilated cardiomyopathy","0.201965","5.571e-02","1.000e+00","90"
"05416","Viral myocarditis","0.145849","2.261e-01","1.000e+00","69"
