sampleName,minS,Q1,Q2,Q3,maxS,design
GSM3758006,0,4.41183580182145,5.79711732397644,6.81867207577166,15.2486257108866,NASHfpre
GSM3758010,0,4.33653668401157,5.79485787769059,6.8444389700788,15.396335629179,NASHfpre
GSM3758014,0,4.34805659843047,5.76099604945406,6.83249172459638,15.0591231419116,NASHmale
GSM3758016,0,4.44466115949544,5.80530649737782,6.81195037352076,15.156782565546,NASHmale
GSM3758017,0,4.327338347104,5.80971992935727,6.86183308755232,14.9993183066588,NASHmale
GSM3758018,0,4.46276431147668,5.8014318360452,6.8097303099388,14.9253557937732,NASHfpre
GSM3758020,0,4.35085887872704,5.77455090007563,6.8469880288277,15.0161578830598,NAFLmale
GSM3758021,0,4.4720306439727,5.80066303780119,6.7992266869505,14.707829472825,NASHfpre
GSM3758022,0,4.40333056358578,5.79184015546392,6.82440059251046,14.9967381125733,NASHmale
GSM3758023,0,4.37167576319997,5.78340849248542,6.83205474276612,14.7923029411934,NAFLmale
GSM3758025,0,4.39823103910107,5.78428976632945,6.80980855044428,14.6458613131798,NASHfpre
GSM3758027,0,4.43495446827889,5.79214225370983,6.79607907746311,15.1727555120666,NAFLfpre
GSM3758029,0,4.4768412724346,5.80970523542701,6.80036445440787,15.0124556967184,NAFLmale
GSM3758033,0,4.52390223621721,5.83023840566719,6.80534014239398,14.700758292592,NAFLmale
GSM3758034,0,4.47058365414803,5.81201751499883,6.82045363091964,14.7858111812211,NASHfpre
GSM3758035,0,4.41542127906412,5.78499095226377,6.81411031326561,14.9352058535736,NASHfpre
GSM3758036,0,4.39157446245296,5.77759474822724,6.81060127146662,15.0116588689636,NASHmale
GSM3758037,0,4.38832549382468,5.78468359890387,6.81323278499578,15.0141835367502,NASHmale
GSM3758038,0,4.42774984270785,5.80449215902479,6.80584746674363,14.6104429055506,NAFLmale
GSM3758041,0,4.38932410134752,5.77855676663042,6.79579349916408,14.7143652721698,NAFLmale
GSM3758042,0,4.38369627062803,5.80138226124055,6.81859091739674,14.8243256371307,NAFLfpre
GSM3758044,0,4.40270128433031,5.78691312494117,6.81221479086479,14.9659073942338,NAFLmale
GSM3758045,0,4.50551882253696,5.83390082575907,6.84149874061775,15.4404134709656,NAFLmale
GSM3758046,0,4.42062754399876,5.79602248663193,6.80395351550212,15.2183693504482,NASHmale
GSM3758047,0,4.56410206943755,5.85681350399051,6.820380447558,15.5486191609364,NASHmale
GSM3758048,0,4.43248945215389,5.80826473429859,6.81647952919038,14.3600833079569,NAFLfpre
GSM3758049,0,4.47834638305946,5.80965255311088,6.80792728167716,14.615825741137,NASHfpre
GSM3758051,0,4.28249784777306,5.78886700558799,6.84837011286755,15.5444655034424,NAFLmale
GSM3758052,0,4.42062476121682,5.7868762772759,6.81150266776365,15.0372158569246,NAFLmale
GSM3758056,0,4.41244745370347,5.78625756174634,6.81443669758596,14.9942495618854,NAFLmale
GSM3758057,0,4.41601767666899,5.80276757479898,6.82866840196169,14.9275214571791,NASHfpre
GSM3758058,0,4.467122432295,5.78771900686537,6.77625179985583,14.845392082958,NASHfpre
GSM3758059,0,4.31606384678256,5.76996882914794,6.86628167659918,14.7691840961488,NASHmale
GSM3758060,0,4.40388306968004,5.79195686995515,6.81285875514054,14.8082816962514,NASHmale
GSM3758061,0,4.39263502842237,5.77713532300305,6.81668590256648,15.1212307273348,NAFLmale
GSM3758062,0,4.38393823503063,5.7876351369089,6.82964412744345,14.9747476697121,NASHmale
GSM3758064,0,4.39965958846988,5.77595447673589,6.79714917372196,14.8182675520835,NAFLmale
GSM3758066,0,4.33042763237456,5.78400558755663,6.851774727262,15.1941177486506,NASHmale
GSM3758067,0,4.35778032225065,5.77593356194986,6.81865678348218,14.8655170746805,NAFLfpre
GSM3758068,0,4.40788796743232,5.79315293438475,6.80137125442178,15.0405918951002,NASHmale
GSM3758070,0,4.42975439001523,5.77211055650817,6.80159296521188,15.0005034781202,NASHfpre
GSM3758072,0,4.43935090524603,5.78698427334898,6.7988388013242,14.6562509485908,NASHmale
GSM3758081,0,4.36486721567059,5.77121143005175,6.81153568621374,14.9031345487113,NASHfpre
