sampleName,minS,Q1,Q2,Q3,maxS,design
GSM2385723,7.4390507,8.679051,10.1072445,12.132462,15.758859,NAFLmale
GSM2385724,7.4390507,8.679176,10.1073885,12.132462,15.758859,NAFLfpre
GSM2385725,7.4390507,8.67918,10.107373,12.132462,15.758859,NAFLmale
GSM2385726,7.4390507,8.678636,10.10751,12.132462,15.758859,NAFLfpre
GSM2385727,7.4390507,8.678906,10.1073885,12.132462,15.758859,NAFLmale
GSM2385729,7.4390507,8.678493,10.1073885,12.132462,15.758859,NASHmale
GSM2385730,7.4390507,8.679121,10.1073885,12.132587,15.758859,NAFLmale
GSM2385731,7.4390507,8.67889,10.1073885,12.132462,15.758859,NASHfpre
GSM2385732,7.4390507,8.678493,10.1073885,12.132702,15.758859,NASHmale
GSM2385733,7.4390507,8.67889,10.1073885,12.132462,15.758859,NAFLmale
GSM2385734,7.4390507,8.678812,10.10751,12.132462,15.758859,NAFLmale
GSM2385736,7.4390507,8.679255,10.1073885,12.132462,15.758859,NASHfpre
GSM2385737,7.4390507,8.678894,10.1072445,12.132462,15.758859,NASHmale
GSM2385738,7.4390507,8.679942,10.1073885,12.132462,15.758859,NAFLmale
GSM2385739,7.4390507,8.678894,10.1073885,12.132462,15.758859,NASHmale
GSM2385742,7.4390507,8.678812,10.1073885,12.132462,15.758859,NASHmale
GSM2385744,7.4390507,8.679121,10.107626,12.132462,15.758859,NAFLmale
GSM2385745,7.4390507,8.67911,10.1073885,12.132462,15.758859,NAFLmale
GSM2385746,7.4390507,8.67925,10.10751,12.132462,15.758859,NAFLmale
GSM2385747,7.4390507,8.678138,10.1073885,12.132462,15.758859,NAFLmale
GSM2385748,7.4390507,8.6785555,10.1073885,12.132462,15.758859,NASHmale
GSM2385749,7.4390507,8.678906,10.1073885,12.132462,15.758859,NAFLmale
GSM2385750,7.4390507,8.678427,10.1073885,12.1323185,15.758859,NASHmale
GSM2385751,7.4390507,8.67889,10.1073885,12.132462,15.758859,NASHfpre
GSM2385752,7.4390507,8.678812,10.1073885,12.1323185,15.758859,NASHmale
GSM2385754,7.4390507,8.678903,10.1072445,12.132462,15.758859,NASHmale
GSM2385756,7.4390507,8.679322,10.1072445,12.132462,15.758859,NASHfpre
GSM2385773,7.4390507,8.67889,10.107626,12.132462,15.758859,NAFLmale
GSM2385777,7.4390507,8.678563,10.1072445,12.132462,15.758859,NAFLmale
