Study,Premenopausal Women NASH,Premenopausal Women NAFL,Men NASH,Men NAFL,Total
gse48452,10,9,4,4,27
gse61260,10,7,12,12,41
gse66676,10,7,3,6,26
gse83452,35,32,46,6,119
gse89632,4,2,9,14,29
gse126868,6,4,9,12,31
gse130970,4,12,13,14,43
