,PC1,PC2,PC3,Design
GSM3615293,-9.74695506376789,-13.536549225832,-17.1641412515241,NAFLmale
GSM3615294,-11.8510013334113,4.36674788490069,2.09763147270768,NAFLmale
GSM3615295,-13.6482001658764,-5.63890027261117,-5.34134073080001,NAFLmale
GSM3615296,-2.02002750429256,-1.19791048849501,4.375037638959,NAFLfpre
GSM3615297,-7.14281170781882,-4.36094795955933,1.1527355447363,NAFLfpre
GSM3615298,-7.05929166758686,7.43658682308042,8.99209485721837,NAFLmale
GSM3615299,-8.23389070192869,-13.9859193128757,-12.8941085609154,NAFLmale
GSM3615300,-4.77519419878754,-2.54278923637233,8.3909864694114,NAFLfpre
GSM3615301,-14.1640857191104,0.0198827407203777,-7.64979905139122,NAFLmale
GSM3615302,-16.7444687148783,-7.87849058182012,-16.6352137517166,NAFLmale
GSM3615303,-7.47307780940176,26.3098981752471,7.22953582009472,NAFLmale
GSM3615304,-16.0743814563479,-8.0301886830307,-20.9609545348703,NAFLfpre
GSM3615305,-4.31076632677975,1.2113162607181,22.4258575817904,NAFLfpre
GSM3615306,-16.1066772237772,8.91745180442001,-18.2454215448731,NAFLmale
GSM3615307,-5.03716311271239,21.512710004473,4.98409981146466,NAFLfpre
GSM3615308,-10.3127796026398,12.3855378253882,-10.4091343936917,NASHmale
GSM3615309,-12.9462061509469,21.332064918469,-6.94186883682002,NASHfpre
GSM3615310,-7.42913413051362,24.6198669132419,2.72048087413186,NASHmale
GSM3615311,-0.984538731230131,27.8840351230213,12.1339920882512,NASHfpre
GSM3615312,-3.00931073275248,7.6722830454238,-3.21916779696313,NASHmale
GSM3615313,-13.525275480284,-38.2464174590831,-1.9366792506088,NASHmale
GSM3615314,-15.2711495888112,-9.97016462961625,23.8889584365595,NASHmale
GSM3615315,-12.566694073888,-11.3502889725894,-8.19202222309994,NASHmale
GSM3615316,0.289970571110922,0.653517901550233,21.3364811487298,NASHmale
GSM3615317,-7.24233338569683,-27.17270374118,10.9427807453608,NASHfpre
GSM3615318,-16.6436534779892,-5.34576518837338,9.0305025602344,NASHfpre
GSM3615319,43.0910128172115,7.64968057579844,12.3477126576702,NASHmale
GSM3615320,41.0440861718006,-31.8536289309532,6.39163087678073,NASHmale
GSM3615321,56.3145751466942,-8.60496714052514,-9.5558938321394,NASHmale
GSM3615322,52.2082308021134,21.0422548435335,-28.1789136158861,NASHmale
GSM3615323,51.3711925522994,-3.29820301706874,8.88414079119863,NASHmale
